actionid: bebe
msg: installpkg
cmdargs: ['/home/z4r4tu5tr4/git/locaweb-grupy-2018/.tox/bebe/bin/python', '-m', 'pip', 'install', '-U', '--no-deps', '/home/z4r4tu5tr4/git/locaweb-grupy-2018/.tox/dist/locaweb-0.0.0.zip']

Processing ./.tox/dist/locaweb-0.0.0.zip
Building wheels for collected packages: locaweb
  Running setup.py bdist_wheel for locaweb: started
  Running setup.py bdist_wheel for locaweb: finished with status 'done'
  Stored in directory: /home/z4r4tu5tr4/.cache/pip/wheels/82/4f/e7/80e8094a588c88015e5c24e73aaa682f26fb4d23ef9f6e5af9
Successfully built locaweb
Installing collected packages: locaweb
  Found existing installation: locaweb 0.0.0
    Not uninstalling locaweb at /home/z4r4tu5tr4/git/locaweb-grupy-2018, outside environment /home/z4r4tu5tr4/git/locaweb-grupy-2018/.tox/bebe
    Can't uninstall 'locaweb'. No files were found to uninstall.
Successfully installed locaweb-0.0.0
